…
The data obtained is

``` r
## weather data object
print(boonah, n=5)
#: # A tibble: 517 × 10
#:    year   day  radn  maxt  mint  rain  evap    vp   code date_met  
#:   <int> <int> <dbl> <dbl> <dbl> <dbl> <dbl> <dbl>  <int> <date>    
#: 1  2019     1  26.2  33.9  16.3     0   7.8  20.6 222222 2019-01-01
#: 2  2019     2  28.2  33.4  17.6     0   7.7  19.8 222222 2019-01-02
#: 3  2019     3  20.5  32.8  16.7     0   6.8  21.9 222222 2019-01-03
#: 4  2019     4  23    32.5  21       2   7.7  22   222222 2019-01-04
#: 5  2019     5  27    33.6  16.8     0   6    21.8 222222 2019-01-05
#: # ℹ 512 more rows
```

The `crop` dataset consists of dates for a hypothetical crop data set
which would also usually contain agronomic traits of interest such as
yield, dry matter yield and so on. Each row of data contains sowing,
flowering and harvest dates for a typical field or farm in Queensland,
Australia.

``` r
## crop data object
print(crop, n=5)
#: # A tibble: 10 × 3
#:   sowing_date flower_date harvest_date
#:   <date>      <date>      <date>      
#: 1 2019-08-25  2019-10-14  2019-11-03  
#: 2 2019-09-20  2019-11-09  2019-11-29  
#: 3 2019-12-18  2020-02-06  2020-02-26  
#: 4 2020-01-15  2020-03-06  2020-03-26  
#: 5 2020-02-15  2020-04-06  2020-04-26  
#: # ℹ 5 more rows
```
…
``` r
## Growing degree and stress days
crop2 <- crop |>
  dplyr::mutate(gddays_post_sow_7d =
           purrr::map_dbl(sowing_date, function(x)
             growing_degree_days(boonah, startdate = x, ndays = 7)),
         stressdays_flower_harvest =
           purrr::map2_dbl(flower_date, harvest_date, function(x, y)
             stress_days_over(boonah, startdate = x, enddate = y)))
print(crop2, n=5)
#: # A tibble: 10 × 5
#:   sowing_date flower_date harvest_date gddays_post_sow_7d stressdays_flower_ha…¹
#:   <date>      <date>      <date>                    <dbl>                  <dbl>
#: 1 2019-08-25  2019-10-14  2019-11-03                 76.4                     10
#: 2 2019-09-20  2019-11-09  2019-11-29                104.                      20
#: 3 2019-12-18  2020-02-06  2020-02-26                132.                      11
#: 4 2020-01-15  2020-03-06  2020-03-26                142.                       4
#: 5 2020-02-15  2020-04-06  2020-04-26                145.                       5
#: # ℹ 5 more rows
#: # ℹ abbreviated name: ¹​stressdays_flower_harvest
```

Similarly, to add total rainfall for the 7 days post sowing and the mean
daily radiation from flowering to harvest we use:

``` r
## Totals and daily means
crop3 <- crop |>
  dplyr::mutate(totalrain_post_sow_7d =
           purrr::map_dbl(sowing_date, function(x)
             cumulative(boonah, var = rain, startdate = x, ndays = 7)),
         meanrad_flower_harvest =
           purrr::map2_dbl(flower_date, harvest_date, function(x, y)
             daily_mean(boonah, var = radn, startdate = x, enddate = y)))
print(crop3, n=5)
#: # A tibble: 10 × 5
#:   sowing_date flower_date harvest_date totalrain_post_sow_7d
#:   <date>      <date>      <date>                       <dbl>
#: 1 2019-08-25  2019-10-14  2019-11-03                    10.5
#: 2 2019-09-20  2019-11-09  2019-11-29                     0  
#: 3 2019-12-18  2020-02-06  2020-02-26                     0  
#: 4 2020-01-15  2020-03-06  2020-03-26                    88.4
#: 5 2020-02-15  2020-04-06  2020-04-26                    20.7
#: # ℹ 5 more rows
#: # ℹ 1 more variable: meanrad_flower_harvest <dbl>
```
…
