Obtaining Historical Weather Data from Qld Government DES Website
…
SILO products are provided free of charge to the public for use under the Creative Commons Attribution 4.0 license. However, please note that this is a free service and so a fair-use limit is imposed even if exact limits are not specified.

The boonah dataset contains meteorological SILO data for the period 1 Jan 2019 to 31 May 2020 obtained from the Longpaddock Queensland Government DES web site https://www.longpaddock.qld.gov.au for Boonah which is located at -27.9927 S, 152.6906 E. The data is in APSIM format and contains temperature, rainfall, evaporation and radiation variables and the rows are consecutive days during the period. The weather data set was obtained using

boonah <-
   get_silodata(latitude = "-27.9927", longitude = "152.6906",
                email = "MY_EMAIL_ADDRESS", START = "20190101", FINISH = "20200531")

To obtain gridded data, which is what get_silodata assumes, you need to supply at least the site latitude and longitude as well as your email address by replacing MY_EMAIL_ADDRESS with your email address. The data is freely available under the Creative Commons 4.0 License. Note that SILO may be unavailable between 11am and 1pm (Brisbane time) each Wednesday and Thursday to allow for essential system maintenance.

The data obtained is

## weather data object
print(boonah, n=5)
#: # A tibble: 517 x 10
#:    year   day  radn  maxt  mint  rain  evap    vp   code date_met  
#:   <int> <int> <dbl> <dbl> <dbl> <dbl> <dbl> <dbl>  <int> <date>    
#: 1  2019     1  26.2  33.9  16.3     0   7.8  20.6 222222 2019-01-01
#: 2  2019     2  28.2  33.4  17.6     0   7.7  19.8 222222 2019-01-02
#: 3  2019     3  20.5  32.8  16.7     0   6.8  21.9 222222 2019-01-03
#: 4  2019     4  23    32.5  21       2   7.7  22   222222 2019-01-04
#: 5  2019     5  27    33.6  16.8     0   6    21.8 222222 2019-01-05
#: # … with 512 more rows
…
